id,from,to
red,https://open.spotify.com/album/1KlU96Hw9nlvqpBPlSqcTV,https://open.spotify.com/album/6kZ42qRrzov54LcAk4onW9
red2,https://open.spotify.com/album/1EoDsNmgTLtmwe1BDAVxV5,https://open.spotify.com/album/6kZ42qRrzov54LcAk4onW9
fearless,https://open.spotify.com/album/2dqn5yOQWdyGwOpOIi9O4x,https://open.spotify.com/album/4hDok0OAJd57SGIT8xuWJH
fearless1,https://open.spotify.com/album/43OpbkiiIxJO8ktIB777Nn,https://open.spotify.com/album/4hDok0OAJd57SGIT8xuWJH